TAP version 13
ok 1 - log in as an administrator user (AdministratorAuthenticationCest::checkAdministratorCanSignIn)
ok 2 - log out (AdministratorAuthenticationCest::checkAdministratorCanSignOut)
ok 3 - login as an author but fail (AdministratorAuthenticationCest::checkAuthorCannotSignIn)
ok 4 - check that the content is present in page (ContactUsPageCest::checkContent)
ok 5 - ensure menu is present in dom (ContactUsPageCest::checkMainMenuIsInDOM)
ok 6 - check that google analytics is present on page (ContactUsPageCest::checkForGoogleAnalyticsInDOM)
ok 7 - check that the content is present in page (FaqPageCest::checkContent)
ok 8 - ensure menu is present in dom (FaqPageCest::checkMainMenuIsInDOM)
ok 9 - check that google analytics is present on page (FaqPageCest::checkForGoogleAnalyticsInDOM)
ok 10 - check that the logo, sign up and sign in are present (HomePageCest::checkContent)
ok 11 - check that all the meta tags are present (HomePageCest::checkMetas)
ok 12 - ensure menu is not present in dom (HomePageCest::checkMainMenuIsNotInDOM)
ok 13 - check that google analytics is present on page (HomePageCest::checkForGoogleAnalyticsInDOM)
ok 14 - check that the content is present in page (HowItWorksPageCest::checkContent)
ok 15 - ensure menu is present in dom (HowItWorksPageCest::checkMainMenuIsInDOM)
ok 16 - check that google analytics is present on page (HowItWorksPageCest::checkForGoogleAnalyticsInDOM)
ok 17 - check that the content is present in page (InvestingPageCest::checkContent)
ok 18 - ensure menu is present in dom (InvestingPageCest::checkMainMenuIsInDOM)
ok 19 - check that google analytics is present on page (InvestingPageCest::checkForGoogleAnalyticsInDOM)
ok 20 - check that the content is present in page (PrivacyPolicyPageCest::checkContent)
ok 21 - ensure menu is present in dom (PrivacyPolicyPageCest::checkMainMenuIsInDOM)
ok 22 - check that google analytics is present on page (PrivacyPolicyPageCest::checkForGoogleAnalyticsInDOM)
ok 23 - check that the content is present in page (RaisingMoneyPageCest::checkContent)
ok 24 - ensure menu is present in dom (RaisingMoneyPageCest::checkMainMenuIsInDOM)
ok 25 - check that google analytics is present on page (RaisingMoneyPageCest::checkForGoogleAnalyticsInDOM)
ok 26 - check that the content is present in page (TermsOfUsePageCest::checkContent)
ok 27 - ensure menu is present in dom (TermsOfUsePageCest::checkMainMenuIsInDOM)
ok 28 - check that google analytics is present on page (TermsOfUsePageCest::checkForGoogleAnalyticsInDOM)
1..28
